{
  "type": "service_account",
  "project_id": "puntajes",
  "private_key_id": "e35884082782ad91e5698fd4d51cf49ff558ffa5",
  "private_key": "-----BEGIN PRIVATE KEY-----\nMIIEvgIBADANBgkqhkiG9w0BAQEFAASCBKgwggSkAgEAAoIBAQCdM3WGvT64CS5L\nGwrWGcThS+dHIyGX+k+VxrdA8YTZShg1x776tLRW12uoUJrUUv+J6Z4TwQmZIJNs\neAzN3JHDxj/YX5oZ85JVUFBVhQoeb6CUt/NPBY3z+Vw+YbQSw+OgMcYyjvNFS+lv\nyi+OVs+ROcdbvBa21wdeNaApkBBf+uJkLv1XsGIoRZT3JlnIge7ZyV+eN4tTbDmy\nsET0ZykVy5m/oT+9/WnarkBuiXD8RyP1I//xefLKEG0fa8Xh0uGdTfdPWPj225jk\nNXRgRzAhnZV/cQSQX+bK3SV9q8amjbCIOayM0KdH/zBjmAnpf89vXrt2Ua3tTMPb\nmWN+HWKFAgMBAAECggEAJHy6tSz8v0OmQpmCwOIXUAHJqznMxNU9HrMSetj0MGkh\nyG3V9qP1zchPfTBEV67yECUw4z3lh+zHOyB8PFYLYUkFLag3APoHh5TOKKNqD1ly\niMJPj5Jm+e9xiSstXEOqdFbJPZfvgDCX/LINqrickgU6sCCulv6+/49r3unI2zXn\nnRa1gl9ym0TEfGo4K50yddz2vmEvmnD0fA1R/QS67jT6PCvHxFvIbIzcOcMrjDSx\ngbmMuwfJZb27phpfNXsmBn9RcENEjazMdHiUTGnfgGm1chdBOmRBHTkecGUyLI97\nlqsLCDY+pBVuNZoocNskSxBmY8/JIvPyQkGBEkqPywKBgQDQ/Sdanlwhe4uaV6WO\n/+TA+fu+JQLd+4ZyC2djbF8v6sHydTRjYCVXXKXWxpfNjr6lBuJlXn0SFaT0LO3e\nLM4pOgfVm0rVyzVliDoAkleXG/VmnbHVFzEL+FzgD/Gfg00ZFvAWZLOS2g6Gy/hg\nGekC9yPg5/jtgEwNZQ8FDEPhXwKBgQDAkAvGJf0aIb5EJcOt1N405kRaDV9sjFHx\niqlFQawaRcXQtI816dAmNfKn9vfNF0/v6FtLanZexeuQCjZkUHLRYqdl6VM7xIEm\nCMkgxLgNx4tsksE5j2PB/9O5r4lBBFev+ANFIsP++ZJ6+XAv20rg/34jak26syVu\nTcAGHFzSmwKBgQCbofq9pDLOCHg1D1JOhMgw4bkUp/FTqG093ro2s0zLnVKjoZ7K\n5p3ISkmCAVCpFsVolhDhFpWjcxTtdcwKaWl6ECona8c2IWd5XhJ7vH+YG40LxyHY\no7W1yVY40gbJGHnA1nEi7AlCsjqhLaKgxorc13kTkwywqZt5WinuQ20FlwKBgHsy\nbWX7Xf//AKTG6HdpjjSX8bkPfzKKX87CIOPfTUWNyC5rpogeq/4WW8YcWpPLS2g4\n51fLqCmgRMJl1kC9u4e8r06jRY4ifWIhEtS1JvAh71CqX5b85xzyGLpe1NhU9+js\nKuNrh6u0boPg3GaxzSlALKpp04sUHGmCssz2DmjrAoGBAI5wrEyAHFy5377rNNRJ\n42lHI8TbGt6McX6o2mw91MwZwsNzUaFblLH8/IYl+0E0G2Yr44xzoi+2Uivmh79t\nfvDViNWfmZx1zNwPmGWPNj1MluBJGLHk1+X1is0NsmWpFcaROabqqKr7Gn1TmSer\nXxhaKJE+LXpwqURdX9cNxpLb\n-----END PRIVATE KEY-----\n",
  "client_email": "computador2@puntajes.iam.gserviceaccount.com",
  "client_id": "107329203291044180669",
  "auth_uri": "https://accounts.google.com/o/oauth2/auth",
  "token_uri": "https://oauth2.googleapis.com/token",
  "auth_provider_x509_cert_url": "https://www.googleapis.com/oauth2/v1/certs",
  "client_x509_cert_url": "https://www.googleapis.com/robot/v1/metadata/x509/computador2%40puntajes.iam.gserviceaccount.com"
}
