{
  "type": "service_account",
  "project_id": "puntajes",
  "private_key_id": "dee30badc119e7f5330f10d51357c2e342d9b6e6",
  "private_key": "-----BEGIN PRIVATE KEY-----\nMIIEvwIBADANBgkqhkiG9w0BAQEFAASCBKkwggSlAgEAAoIBAQDSMaYXC/GwOs7H\nNQETVDaU9ajaK4bfMXHnT/mMc1OQbkKkjpkz3mKAIB5YEJkjG5vQsnZaYArsNcsQ\ntp5tsDQWbFZNUUdhU2VKYSI1AlRedbiHgbEzllUYcVsUzieVY6d609tpZzVWCWvf\nk2t44BpAn90qgKi8wxTD0ISKp/pDhRAqGpH5NsNoKWKuUY/XO5zx9Pv0Ky5EE5/y\nQDZraqd/xSq6W1VmYtvfzIBqepeqsxurk+PK1opgdfAi6ZsCvDU9ncAHimXuJt76\naEqBNPBIEh7XdAX8icdixDKF2R3b6Mf9z+VhR5xnukMHfknH45sRQ3MntvVrS2ds\nVZ/du0w3AgMBAAECggEAJmsJsvutZKsTAUkYVbqWMVrHTn0XLTNB4Of2siugEe19\nQ8uGh/r1IPr94NXDz61rqNT9md4lEPByGa9vPJgwpQqPKZmaBNlz0Yj4chznY857\neFUFmOq4yftqDN7zUDRDN8mCOH0zO/MD4vz0b0bytW4iw/J5JOs5H+M8XoV+Uhmq\npOXP2nydFSn+FFlDGQMXp+ykQhr19XF7Y6pTT7uRvSxhyjgK+CgL0iEtwORaoiA/\nz37vmrw5yqHd+kkkMeD0TMVqt8p8hA85UtU3Uw/uPWxc+816j71nHLm1C6rkwWiE\nq6QeiURYwHTgM378/HaoJQCFoRwNoKIvdiTLgWHL+QKBgQD0hYES64adyqrBgNRQ\nuXm3jmE3Hdxg6H1ke1sgFSZGdiob1lKi9u2Nj4qiqQBB9wAI7fvPZitoDIoC6ta1\nGRwmIkfxK1z0QLkTidmlKPz6krmoSEjYC8zCeU2dsVIAMQ7lli/Oe92zUz2LG/ub\n2ObEuig0urn18AgoHx09kwhmaQKBgQDcD55y+5kCuxUBfggWpKlmjEtj1jT74Anr\no2WNdg9YkbVTHhU3fajKZ3INEi99pVyVZsb6QIhfYP9k0nL++yhPWxJI3cEwsjCL\nzfCOfg01yJwgrzzTGzcY2VTcoX5gZNI11hFVeYWFr0+p5yWIFd7JVQ0ajPeNx8xo\nh/neZ1oJnwKBgQDuGL15ddvL9BdXeqHCxQgPQ1XIPIxl1Jyc5jzyPYXaoJ8aIhSv\nWLAx4q7E+rkkgmYHS+yhpEPp+iO8+Xz+NKgjPcg9vtKxiABvVRCX8RR8zbh4c4Jy\n1PKZ/1IjlhFZ3Gs8BYUhk51qS0inFyVmOMtkjjwuNBB1uTfIEZwAZBaO2QKBgQDR\nSSlwQUfsCPCZUrtujXtuQ88PTBFn2lKU//j86GL/4NOKEPospB17IZaeR8VSwYmj\nrPNf3S/VRfKeeGdViJd1oS9qjTvGjDEPRPSbD9aQaBHUI9S9EQz9XPQQQKZoFnq1\nKLmjiMcrtOcWtvZCzknrQDAOKDLnbDVC1M8WbUR8EQKBgQCZUmckGEpFFFyoJ/Vl\nJWp6oSaw7HcDlu1zyF3HFhaBFd0jDjYFF3xXk63CKiD4CWWd5r5LKAG1ox2YLyqR\nBnA7ihaIRknFuAfYOTC1TfYB2axhyjuj3Dt5WgCkSftU0s0ELYzuUnFsIK6qaLtB\nAZanFplIoVOgjuL/hMPMpTxXpQ==\n-----END PRIVATE KEY-----\n",
  "client_email": "computador3@puntajes.iam.gserviceaccount.com",
  "client_id": "114168698833094086644",
  "auth_uri": "https://accounts.google.com/o/oauth2/auth",
  "token_uri": "https://oauth2.googleapis.com/token",
  "auth_provider_x509_cert_url": "https://www.googleapis.com/oauth2/v1/certs",
  "client_x509_cert_url": "https://www.googleapis.com/robot/v1/metadata/x509/computador3%40puntajes.iam.gserviceaccount.com"
}
