{
  "type": "service_account",
  "project_id": "puntajes",
  "private_key_id": "23110f9d8d7d9f370ab96cfc715cc09a8f38dc59",
  "private_key": "-----BEGIN PRIVATE KEY-----\nMIIEvQIBADANBgkqhkiG9w0BAQEFAASCBKcwggSjAgEAAoIBAQCW5qyEclz/OyLI\nEUNK0elG1sVZReywgLK3ZtXYChtmihU8gCQILTRmz1mGVb+jR7IpBmEhjnwstesr\nz+SA482MVTvj6F3XLiOKVt2GH/RlpcwB1omD61ZxbhEvuSdz6tMn57qa+eDcn668\nLXQ+N5HqcXlkRARSZc5ZdER9RCuYKHBkIfxSnZE+PpQ+3AIVunO3NooaGpDPuI0r\nZXhZiy0x2bfAh6suuMlfpq03NX9bmPrNKSHtY/xy2mHP9KpIhgpmN+QKCP4CX7E7\n7qZCmEqBudaXI09I6vFDxgRGMGoTPZ3e1EjPeON/o7QDTkjc14T8buXWs406mUOp\nw14WpZy1AgMBAAECggEAR492yoyNa4A4u1XsaoPnM2/QQMi3OPCfT/gVexE380WS\nUpGWBMajLgows1LgwWbTpz7eOxKd8noG300EWNcu99jHwQnFzrCTrBwLi3qF5Npe\nR5Tcu9GTudDvl4kfm4oFvsvWo33SU+3p6FVJ5eNmcB6F6bWTsxuSYruPazQz1EDG\nsU855h7nTwVDEuO6V8U3n9Pl7yYV5HHogd81VMj3CHY8oSY0qZ1eTxKABEAbxyK3\nZFEBluPdoVv9+6rYetdko6KPu7S4ZweHfckma3wvDQe2KFW9Tex992ZWWGv/Zl64\noZlUbByjOHl95pbwrHC+YufxCmFEPQZxrGSsvARRlQKBgQDIK3EpsA9SfRFY//HE\nysRXD5yR+YP13dk9J58c9AjyW0D9Un3ZZvHpXsGJnWdnwUoeGQiuzoK1ZTdNpI2w\nRk2BBD8OcKblVlwvrfr8tXVxnXQyYnMCN+PCQAO5fSRS7/a+V6GH87bqoOPcR0Cc\nl0lRgaZdmdYmNV5MTIiDdiL8owKBgQDA/VfgjYL08VvedDGrXnQzqRRuiOs9p9S2\nOvtm78xqF0FhrjCmi6NCL49Ga8RbEhRKzNF3FWD/UJMYlmDnl9ksDnJJd8Wug7wm\n+h++1KdWDWCCW/r5G9puurXIOLKrkRvmfF3oPpXq5BCOAP2kNFhEI0tvqfZdKIMo\nkMhqUSl+xwKBgQCSUC7HagnJIeIsS+lND2m0uZSYnun2LdM9AFktsLNZc5ptkH6t\nCrKJAto03PlYvdCPb30JSaoBLZrfBgkLcFf2lkQBKhbUS+vWbjWnwnu2MIFe0td+\nJ5wzwNb4HqEOfpi9SRCpb1uk5TWpLevsiijtivcwM+J0y03CN68RaKjqQQKBgHws\nhjZ91x0zjyD7MlpJVAtJZ1QX1QS+0CbQnKIG+Ufp3q+zHKqMfmc/orh07sqKP3RB\nhSVSJC8i8QKI/6EEG0A1q2OKJS+8o3uQxIxM176OrOIzvLA8M7e7eutxT8UEgSc0\nLlgYrO2OAPjdulXFOGXfL9KRUWtvfbTEM6/0uPZRAoGAcsinXEVyy/SPInwkpSBt\nmIPcnDXo1uM3mOh9itooda60Ze/tBR9IMqxdaMmImNIzzlHUHouNdJlIbXY5nqjZ\nh/e/7ZYkyqPOYWJ7yfdkwjlBpaTD4f74ZU1WNwUn+A/SS8tHdSOYadRLuGm+sTsX\nRQDuFwxmqGMOoiPpdhTkMCs=\n-----END PRIVATE KEY-----\n",
  "client_email": "raspi1@puntajes.iam.gserviceaccount.com",
  "client_id": "102365635607326192470",
  "auth_uri": "https://accounts.google.com/o/oauth2/auth",
  "token_uri": "https://oauth2.googleapis.com/token",
  "auth_provider_x509_cert_url": "https://www.googleapis.com/oauth2/v1/certs",
  "client_x509_cert_url": "https://www.googleapis.com/robot/v1/metadata/x509/raspi1%40puntajes.iam.gserviceaccount.com"
}
